Loppsided: Hunt for the Pangrams
…
# A tibble: 0 x 3
# Groups:   date, letters [0]
#  with 3 variables: date <chr>, letters <chr>, n <int>

# so what extra letters are being identified?

# lets look at letters that show up in cases where wemore than 7 are found
# result: we have many A and S, so those could be mis-identified or maybe those are just common?
data %>% 
  filter(total_letters_found > 7) %>% 
  group_by(letters) %>% 
  count() %>% 
  arrange(desc(n))

# A tibble: 23 x 2
# Groups:   letters [23]
   letters     n
   <chr>   <int>
 1 A         118
 2 S         118
 3 |          78
 4 L          61
 5 T          57
 6 N          56
 7 C          54
 8 E          48
 9 Y          39
10 H          36
#  with 13 more rows
…
As expected, given how the scoring works, the score (proxied by the minimum genius score) is closely correlated with the maximum number of words, but there is some variance. In fact, discrepancies between this relationship might point at games with a large number of pangrams! However, we dont know the number of words going into a game, so this information wouldnt help a player identify how many pangrams there may be. That said, we can safely assume that if genius score is high, the puzzle likely has more words!

Finally, one last area of investigation we could safely look at with our data is how the occurence of pangrams have changed over time. Are we getting more pangrams?

data %>% 
  group_by(date) %>% 
  filter(num_pangram > 1) %>% 
  select(-letters, -req_letter, -total_letters_found) %>% 
  unique() %>% 
  arrange(desc(num_pangram))

# A tibble: 78 x 5
# Groups:   date [78]
   date                     num_pangram max_score max_words min_genius
   <chr>                          <dbl>     <dbl>     <dbl>      <dbl>
 1 Friday, January 22, 2021           7       537        75        376
 2 Monday, May 24, 2021               6       406        74        284
 3 Wednesday, May 5, 2021             6       390        66        273
 4 Thursday, February 11,            5       392        68        274
 5 Friday, December 4, 2020           4       186        38        130
 6 Monday, May 31, 2021               4       269        53        188
 7 Sunday, May 9, 2021                4       360        68        252
 8 Sunday, September 20, 2           4       213        37        149
 9 Monday, February 1, 2021           3       379        72        265
10 Saturday, August 8, 2020           3       249        46        174
#  with 68 more rows
…
